8.225470806247550063e+05 7.332017236344200792e+05
2.432259110737166775e+05 8.483322175804652506e+05
8.522851700126571814e+05 1.565405995183829509e+05
6.186009718623209046e+05 3.981413307509474107e+05
5.068164334323520889e+05 1.744456707751349022e+05
3.189643540339370375e+05 1.621234340787210094e+05
8.014745687640859978e+05 3.197030049550909898e+05
6.048621160949742189e+05 5.713979973334337119e+05
6.711836517698098905e+05 8.637588561329748482e+05
1.386909894822429633e+05 5.576527648249013582e+05
4.140658334345323965e+05 7.878541530904612737e+05
8.599823791031836299e+05 5.447468260022306349e+05
3.981466273310944089e+05 4.064530937382814009e+05
3.374285184993339353e+05 5.620405357820541831e+05
1.675539036631222698e+05 3.466951661662753904e+05
